Test/A0001M.CSV

Memory Length,250,
Trigger Level,0.000E+00,
Source,FFT,
Probe,1X,
Vertical Units,dB,
Vertical Scale,1.000E+01,
Vertical Position,3.000000E+00,
Horizontal Units,Hz,
Horizontal Scale,1.000E+03,
Horizontal Position,0.000E+00,
Horizontal Mode,Main,
Sampling Period,4.000E+01,
Firmware, V1.24,
Time, ,
Mode,Fast,
Waveform Data,
-168,
-31,
-23,
-45,
-105,
-95,
-123,
-124,
-132,
-103,
-137,
-130,
-124,
-139,
-129,
-132,
-136,
-125,
-135,
-136,
-127,
-139,
-127,
-139,
-132,
-145,
-129,
-136,
-135,
-139,
-135,
-129,
-143,
-139,
-137,
-136,
-142,
-135,
-142,
-135,
-132,
-135,
-150,
-130,
-139,
-139,
-145,
-131,
-142,
-145,
-145,
-131,
-150,
-150,
-139,
-132,
-150,
-132,
-143,
-145,
-130,
-131,
-160,
-129,
-150,
-150,
-142,
-145,
-150,
-142,
-150,
-160,
-150,
-139,
-143,
-150,
-139,
-142,
-150,
-137,
-150,
-137,
-150,
-142,
-139,
-150,
-139,
-137,
-145,
-150,
-136,
-150,
-167,
-135,
-150,
-139,
-150,
-137,
-139,
-150,
-135,
-150,
-145,
-142,
-137,
-152,
-145,
-139,
-150,
-150,
-135,
-168,
-145,
-139,
-167,
-145,
-152,
-150,
-150,
-139,
-143,
-145,
-150,
-160,
-135,
-150,
-145,
-145,
-150,
-167,
-150,
-167,
-150,
-142,
-145,
-150,
-143,
-152,
-152,
-160,
-152,
-142,
-150,
-152,
-167,
-150,
-160,
-150,
-160,
-145,
-150,
-152,
-160,
-132,
-152,
-160,
-131,
-168,
-142,
-167,
-139,
-152,
-136,
-132,
-125,
-167,
-150,
-143,
-150,
-152,
-145,
-142,
-150,
-150,
-145,
-142,
-160,
-150,
-143,
-150,
-143,
-160,
-160,
-150,
-150,
-137,
-168,
-142,
-152,
-160,
-137,
-150,
-160,
-137,
-150,
-160,
-150,
-150,
-152,
-150,
-167,
-150,
-142,
-137,
-150,
-132,
-139,
-142,
-150,
-160,
-139,
-160,
-160,
-150,
-143,
-143,
-167,
-142,
-160,
-135,
-160,
-160,
-142,
-142,
-152,
-143,
-152,
-152,
-136,
-160,
-150,
-167,
-142,
-160,
-150,
-137,
-152,
-168,
-145,
-152,
-168,
-142,
-150,
-167,
-160,
-135,
-145,
-150,
-139,
-167,
